﻿{
  "dependencies": {
    "Microsoft.NETCore.UniversalWindowsPlatform": "5.3.3",
    "Microsoft.Xaml.Behaviors.Uwp.Managed": "2.0.0",
    "PCLStorage": "1.0.2",
    "sqlite-net-pcl": "1.3.3",
    "SQLite.Net-PCL": "3.1.1",
    "Xamarin.Forms": "2.3.3.193"
  },
  "frameworks": {
    "uap10.0": {}
  },
  "runtimes": {
    "win10-arm": {},
    "win10-arm-aot": {},
    "win10-x86": {},
    "win10-x86-aot": {},
    "win10-x64": {},
    "win10-x64-aot": {}
  }
}